LSTAT2340 - Analyse de données transcriptomique : Single-cell RNA-SEQ
…
markers.COPD.Basal <- FindMarkers(adams,ident.2 = 'Ciliated_Control' ,ident.1 = 'Ciliated_COPD',logfc.threshold = 0.01)
markers.COPD.Basal <- tibble(data.frame(gene=rownames(markers.COPD.Basal),markers.COPD.Basal))
markers.COPD.Basal <- markers.COPD.Basal %>% dplyr::select(gene,avg_log2FC,p_val,p_val_adj)
markers.COPD.Basal

## Registered S3 method overwritten by 'cli':
##   method     from         
##   print.boxx spatstat.geom

## # A tibble: 5,621 × 4
##    gene            avg_log2FC    p_val   p_val_adj
##    <chr>                <dbl>    <dbl>       <dbl>
##  1 FTL                 -1.31  1.83e-11 0.000000779
##  2 ZBTB16               1.46  1.65e- 7 0.00702    
##  3 SCHLAP1             -1.04  1.01e- 5 0.431      
##  4 ENSG00000197180     -1.03  3.27e- 5 1          
##  5 RTN4                -0.883 1.16e- 4 1          
##  6 PCCA                 0.907 1.26e- 4 1          
##  7 DGLUCY               0.967 1.28e- 4 1          
##  8 HSPA1A              -1.22  1.29e- 4 1          
##  9 ALDOA               -1.13  1.31e- 4 1          
## 10 EYA2                 1.05  1.46e- 4 1          
## # … with 5,611 more rows
…
